%YAML 1.1
%TAG !u! tag:unity3d.com,2011:
--- !u!1001 &100100000
Prefab:
  m_ObjectHideFlags: 1
  serializedVersion: 2
  m_Modification:
    m_TransformParent: {fileID: 0}
    m_Modifications: []
    m_RemovedComponents: []
  m_SourcePrefab: {fileID: 0}
  m_RootGameObject: {fileID: 1718848161337108}
  m_IsPrefabAsset: 1
--- !u!1 &1718848161337108
GameObject:
  m_ObjectHideFlags: 0
  m_CorrespondingSourceObject: {fileID: 0}
  m_PrefabInternal: {fileID: 100100000}
  serializedVersion: 6
  m_Component:
  - component: {fileID: 4663407324534958}
  - component: {fileID: 114254889776628370}
  m_Layer: 0
  m_Name: CarpetBehaviour
  m_TagString: Untagged
  m_Icon: {fileID: 0}
  m_NavMeshLayer: 0
  m_StaticEditorFlags: 0
  m_IsActive: 1
--- !u!4 &4663407324534958
Transform:
  m_ObjectHideFlags: 1
  m_CorrespondingSourceObject: {fileID: 0}
  m_PrefabInternal: {fileID: 100100000}
  m_GameObject: {fileID: 1718848161337108}
  m_LocalRotation: {x: 0, y: 0, z: 0, w: 1}
  m_LocalPosition: {x: 42.656902, y: 9.492442, z: -23.188448}
  m_LocalScale: {x: 1, y: 1, z: 1}
  m_Children: []
  m_Father: {fileID: 0}
  m_RootOrder: 0
  m_LocalEulerAnglesHint: {x: 0, y: 0, z: 0}
--- !u!114 &114254889776628370
MonoBehaviour:
  m_ObjectHideFlags: 1
  m_CorrespondingSourceObject: {fileID: 0}
  m_PrefabInternal: {fileID: 100100000}
  m_GameObject: {fileID: 1718848161337108}
  m_Enabled: 1
  m_EditorHideFlags: 0
  m_Script: {fileID: 11500000, guid: eda2a320eb86ad84b9fb1a1e37186014, type: 3}
  m_Name: 
  m_EditorClassIdentifier: 
  wallType: 3
  wallStartPrefab:
  - {fileID: 1946210094661582, guid: e3b1b60a99f855f4fad7bb18e0c11ebf, type: 2}
  - {fileID: 1190442505637540, guid: ae40c28adb51f1e4ea3a957787177eb0, type: 2}
  - {fileID: 1078912539132616, guid: 050f5218976665a4990abb0c8854519f, type: 2}
  wallSegmentPrefab:
  - {fileID: 1615292982681556, guid: 3fb4b5cb31fafff43bf03ba6fa071aa5, type: 2}
  - {fileID: 1473296606357006, guid: 804e537ae5ac12449b9bc745d2bf8d5f, type: 2}
  - {fileID: 1712138428589154, guid: 201841f1e73c7cf4cb19b71ec25d7789, type: 2}
  repeats: 100
